{
	"id": "0dd1bfd5-5800-f2b8-9c37-a00dd372d84f",
	"name": "Laravel",
	"values": [
		{
			"key": "host",
			"value": "http://lara",
			"type": "text",
			"enabled": true
		},
		{
			"key": "admin_email",
			"value": "admin@la.com",
			"type": "text",
			"enabled": true
		},
		{
			"key": "admin_password",
			"value": "123456",
			"type": "text",
			"enabled": true
		},
		{
			"key": "token",
			"value": "eyJ0eXAiOiJKV1QiLCJhbGciOiJIUzI1NiJ9.eyJzdWIiOjEyLCJpc3MiOiJodHRwOlwvXC9sYXJhXC9hcGlcL3YxXC9sb2dpbiIsImlhdCI6MTQ3MDMwMjkxNSwiZXhwIjoxNDcwMzA2NTE1LCJuYmYiOjE0NzAzMDI5MTUsImp0aSI6ImQzMGZjODI3MjE0YjZlNmI3ZWVlNTkyMDY1YTU5YjBiIn0.Xjb62l1PgsEsFlPsqAbLq4VpHy8n2bbiNs1CiO71bCE",
			"type": "text",
			"enabled": true
		}
	],
	"timestamp": 1470303952672,
	"synced": false,
	"syncedFilename": "",
	"team": null,
	"isDeleted": false
}